####
#
# OBJ File Generated by Meshlab
#
####
# Object floor.obj
#
# Vertices: 36
# Faces: 12
#
####
mtllib ./floor.obj.mtl

vn 0.000000 0.000000 -1.000000
vt 0.330976 0.999023
v 0.500000 -0.005000 -0.500000
vn 0.000000 0.000000 -1.000000
vt 0.000977 0.999023
v -0.500000 -0.005000 -0.500000
vn 0.000000 0.000000 -1.000000
vt 0.000977 0.669024
v -0.500000 0.005000 -0.500000
vn -0.000000 -0.000000 -1.000000
vt 0.332357 0.997642
v 0.500000 -0.005000 -0.500000
vn -0.000000 -0.000000 -1.000000
vt 0.002358 0.667643
v -0.500000 0.005000 -0.500000
vn -0.000000 -0.000000 -1.000000
vt 0.332357 0.667643
v 0.500000 0.005000 -0.500000
vn -1.000000 0.000000 0.000000
vt 0.334310 0.669024
v -0.500000 -0.005000 0.500000
vn -1.000000 0.000000 0.000000
vt 0.664309 0.999023
v -0.500000 0.005000 -0.500000
vn -1.000000 0.000000 0.000000
vt 0.334310 0.999023
v -0.500000 -0.005000 -0.500000
vn -1.000000 -0.000000 -0.000000
vt 0.665690 0.997642
v -0.500000 0.005000 -0.500000
vn -1.000000 -0.000000 -0.000000
vt 0.335691 0.667643
v -0.500000 -0.005000 0.500000
vn -1.000000 -0.000000 -0.000000
vt 0.665690 0.667643
v -0.500000 0.005000 0.500000
vn 0.000000 -1.000000 0.000000
vt 0.667643 0.669024
v 0.500000 -0.005000 -0.500000
vn 0.000000 -1.000000 0.000000
vt 0.997642 0.999023
v -0.500000 -0.005000 0.500000
vn 0.000000 -1.000000 0.000000
vt 0.667643 0.999023
v -0.500000 -0.005000 -0.500000
vn -0.000000 -1.000000 -0.000000
vt 0.999023 0.997642
v -0.500000 -0.005000 0.500000
vn -0.000000 -1.000000 -0.000000
vt 0.669024 0.667643
v 0.500000 -0.005000 -0.500000
vn -0.000000 -1.000000 -0.000000
vt 0.999023 0.667643
v 0.500000 -0.005000 0.500000
vn 0.000000 0.000000 1.000000
vt 0.000977 0.335691
v -0.500000 0.005000 0.500000
vn 0.000000 0.000000 1.000000
vt 0.330976 0.665690
v 0.500000 -0.005000 0.500000
vn 0.000000 0.000000 1.000000
vt 0.000977 0.665690
v 0.500000 0.005000 0.500000
vn 0.000000 0.000000 1.000000
vt 0.332357 0.664309
v 0.500000 -0.005000 0.500000
vn 0.000000 0.000000 1.000000
vt 0.002358 0.334310
v -0.500000 0.005000 0.500000
vn 0.000000 0.000000 1.000000
vt 0.332357 0.334310
v -0.500000 -0.005000 0.500000
vn 0.000000 1.000000 0.000000
vt 0.334310 0.335691
v 0.500000 0.005000 -0.500000
vn 0.000000 1.000000 0.000000
vt 0.664309 0.665690
v -0.500000 0.005000 0.500000
vn 0.000000 1.000000 0.000000
vt 0.334310 0.665690
v 0.500000 0.005000 0.500000
vn 0.000000 1.000000 0.000000
vt 0.665690 0.664309
v -0.500000 0.005000 0.500000
vn 0.000000 1.000000 0.000000
vt 0.335691 0.334310
v 0.500000 0.005000 -0.500000
vn 0.000000 1.000000 0.000000
vt 0.665690 0.334310
v -0.500000 0.005000 -0.500000
vn 1.000000 0.000000 0.000000
vt 0.667643 0.335691
v 0.500000 -0.005000 0.500000
vn 1.000000 0.000000 0.000000
vt 0.997642 0.665690
v 0.500000 0.005000 -0.500000
vn 1.000000 0.000000 0.000000
vt 0.667643 0.665690
v 0.500000 0.005000 0.500000
vn 1.000000 0.000000 0.000000
vt 0.999023 0.664309
v 0.500000 0.005000 -0.500000
vn 1.000000 0.000000 0.000000
vt 0.669024 0.334310
v 0.500000 -0.005000 0.500000
vn 1.000000 0.000000 0.000000
vt 0.999023 0.334310
v 0.500000 -0.005000 -0.500000
# 36 vertices, 0 vertices normals


usemtl material_0
f 1/1/1 2/2/2 3/3/3
f 4/4/4 5/5/5 6/6/6
f 7/7/7 8/8/8 9/9/9
f 10/10/10 11/11/11 12/12/12
f 13/13/13 14/14/14 15/15/15
f 16/16/16 17/17/17 18/18/18
f 19/19/19 20/20/20 21/21/21
f 22/22/22 23/23/23 24/24/24
f 25/25/25 26/26/26 27/27/27
f 28/28/28 29/29/29 30/30/30
f 31/31/31 32/32/32 33/33/33
f 34/34/34 35/35/35 36/36/36
# 12 faces, 0 coords texture

# End of File
