^F:\FANSHAWE\TERM 2\ARTIFICIAL INTELLIGENCE\PROJECT2\PROJECT2\CCAMERA.CPP|F:\FANSHAWE\TERM 2\ARTIFICIAL INTELLIGENCE\PROJECT2\PROJECT2\CGAMEOBJECT.CPP|F:\FANSHAWE\TERM 2\ARTIFICIAL INTELLIGENCE\PROJECT2\PROJECT2\CMAP.CPP|F:\FANSHAWE\TERM 2\ARTIFICIAL INTELLIGENCE\PROJECT2\PROJECT2\CMAPCELL.CPP|F:\FANSHAWE\TERM 2\ARTIFICIAL INTELLIGENCE\PROJECT2\PROJECT2\CMAPLOADER.CPP|F:\FANSHAWE\TERM 2\ARTIFICIAL INTELLIGENCE\PROJECT2\PROJECT2\CMESH.CPP|F:\FANSHAWE\TERM 2\ARTIFICIAL INTELLIGENCE\PROJECT2\PROJECT2\CMODEL.CPP|F:\FANSHAWE\TERM 2\ARTIFICIAL INTELLIGENCE\PROJECT2\PROJECT2\CPATH.CPP|F:\FANSHAWE\TERM 2\ARTIFICIAL INTELLIGENCE\PROJECT2\PROJECT2\CSHADER.CPP|F:\FANSHAWE\TERM 2\ARTIFICIAL INTELLIGENCE\PROJECT2\PROJECT2\CSHADERMANAGER.CPP|F:\FANSHAWE\TERM 2\ARTIFICIAL INTELLIGENCE\PROJECT2\PROJECT2\MAIN.CPP|F:\FANSHAWE\TERM 2\ARTIFICIAL INTELLIGENCE\PROJECT2\PROJECT2\STB_IMAGE.CPP|F:\FANSHAWE\TERM 2\ARTIFICIAL INTELLIGENCE\PROJECT2\PROJECT2\UTILITIES.CPP
F:\FANSHAWE\TERM 2\ARTIFICIAL INTELLIGENCE\PROJECT2\PROJECT2\DEBUG\VC141.PDB
F:\FANSHAWE\TERM 2\ARTIFICIAL INTELLIGENCE\PROJECT2\PROJECT2\DEBUG\VC141.IDB
F:\FANSHAWE\TERM 2\ARTIFICIAL INTELLIGENCE\PROJECT2\PROJECT2\DEBUG\CCAMERA.OBJ
F:\FANSHAWE\TERM 2\ARTIFICIAL INTELLIGENCE\PROJECT2\PROJECT2\DEBUG\CGAMEOBJECT.OBJ
F:\FANSHAWE\TERM 2\ARTIFICIAL INTELLIGENCE\PROJECT2\PROJECT2\DEBUG\CMAP.OBJ
F:\FANSHAWE\TERM 2\ARTIFICIAL INTELLIGENCE\PROJECT2\PROJECT2\DEBUG\CMAPCELL.OBJ
F:\FANSHAWE\TERM 2\ARTIFICIAL INTELLIGENCE\PROJECT2\PROJECT2\DEBUG\CMAPLOADER.OBJ
F:\FANSHAWE\TERM 2\ARTIFICIAL INTELLIGENCE\PROJECT2\PROJECT2\DEBUG\CMESH.OBJ
F:\FANSHAWE\TERM 2\ARTIFICIAL INTELLIGENCE\PROJECT2\PROJECT2\DEBUG\CMODEL.OBJ
F:\FANSHAWE\TERM 2\ARTIFICIAL INTELLIGENCE\PROJECT2\PROJECT2\DEBUG\CPATH.OBJ
F:\FANSHAWE\TERM 2\ARTIFICIAL INTELLIGENCE\PROJECT2\PROJECT2\DEBUG\CSHADER.OBJ
F:\FANSHAWE\TERM 2\ARTIFICIAL INTELLIGENCE\PROJECT2\PROJECT2\DEBUG\CSHADERMANAGER.OBJ
F:\FANSHAWE\TERM 2\ARTIFICIAL INTELLIGENCE\PROJECT2\PROJECT2\DEBUG\STB_IMAGE.OBJ
F:\FANSHAWE\TERM 2\ARTIFICIAL INTELLIGENCE\PROJECT2\PROJECT2\DEBUG\MAIN.OBJ
F:\FANSHAWE\TERM 2\ARTIFICIAL INTELLIGENCE\PROJECT2\PROJECT2\DEBUG\UTILITIES.OBJ
^F:\FANSHAWE\TERM 2\ARTIFICIAL INTELLIGENCE\PROJECT2\PROJECT2\CCAMERA.CPP
F:\FANSHAWE\TERM 2\ARTIFICIAL INTELLIGENCE\PROJECT2\PROJECT2\DEBUG\VC141.PDB
^F:\FANSHAWE\TERM 2\ARTIFICIAL INTELLIGENCE\PROJECT2\PROJECT2\CGAMEOBJECT.CPP
F:\FANSHAWE\TERM 2\ARTIFICIAL INTELLIGENCE\PROJECT2\PROJECT2\DEBUG\VC141.PDB
^F:\FANSHAWE\TERM 2\ARTIFICIAL INTELLIGENCE\PROJECT2\PROJECT2\CMAP.CPP
F:\FANSHAWE\TERM 2\ARTIFICIAL INTELLIGENCE\PROJECT2\PROJECT2\DEBUG\VC141.PDB
^F:\FANSHAWE\TERM 2\ARTIFICIAL INTELLIGENCE\PROJECT2\PROJECT2\CMAPCELL.CPP
F:\FANSHAWE\TERM 2\ARTIFICIAL INTELLIGENCE\PROJECT2\PROJECT2\DEBUG\VC141.PDB
^F:\FANSHAWE\TERM 2\ARTIFICIAL INTELLIGENCE\PROJECT2\PROJECT2\CMAPLOADER.CPP
F:\FANSHAWE\TERM 2\ARTIFICIAL INTELLIGENCE\PROJECT2\PROJECT2\DEBUG\VC141.PDB
^F:\FANSHAWE\TERM 2\ARTIFICIAL INTELLIGENCE\PROJECT2\PROJECT2\CMESH.CPP
F:\FANSHAWE\TERM 2\ARTIFICIAL INTELLIGENCE\PROJECT2\PROJECT2\DEBUG\VC141.PDB
^F:\FANSHAWE\TERM 2\ARTIFICIAL INTELLIGENCE\PROJECT2\PROJECT2\CMODEL.CPP
F:\FANSHAWE\TERM 2\ARTIFICIAL INTELLIGENCE\PROJECT2\PROJECT2\DEBUG\VC141.PDB
^F:\FANSHAWE\TERM 2\ARTIFICIAL INTELLIGENCE\PROJECT2\PROJECT2\CPATH.CPP
F:\FANSHAWE\TERM 2\ARTIFICIAL INTELLIGENCE\PROJECT2\PROJECT2\DEBUG\VC141.PDB
^F:\FANSHAWE\TERM 2\ARTIFICIAL INTELLIGENCE\PROJECT2\PROJECT2\CSHADER.CPP
F:\FANSHAWE\TERM 2\ARTIFICIAL INTELLIGENCE\PROJECT2\PROJECT2\DEBUG\VC141.PDB
^F:\FANSHAWE\TERM 2\ARTIFICIAL INTELLIGENCE\PROJECT2\PROJECT2\CSHADERMANAGER.CPP
F:\FANSHAWE\TERM 2\ARTIFICIAL INTELLIGENCE\PROJECT2\PROJECT2\DEBUG\VC141.PDB
^F:\FANSHAWE\TERM 2\ARTIFICIAL INTELLIGENCE\PROJECT2\PROJECT2\STB_IMAGE.CPP
F:\FANSHAWE\TERM 2\ARTIFICIAL INTELLIGENCE\PROJECT2\PROJECT2\DEBUG\VC141.PDB
^F:\FANSHAWE\TERM 2\ARTIFICIAL INTELLIGENCE\PROJECT2\PROJECT2\MAIN.CPP
F:\FANSHAWE\TERM 2\ARTIFICIAL INTELLIGENCE\PROJECT2\PROJECT2\DEBUG\VC141.PDB
^F:\FANSHAWE\TERM 2\ARTIFICIAL INTELLIGENCE\PROJECT2\PROJECT2\UTILITIES.CPP
F:\FANSHAWE\TERM 2\ARTIFICIAL INTELLIGENCE\PROJECT2\PROJECT2\DEBUG\VC141.PDB
^F:\FANSHAWE\TERM 2\ARTIFICIAL INTELLIGENCE\PROJECT2\PROJECT2\GLAD.C
F:\FANSHAWE\TERM 2\ARTIFICIAL INTELLIGENCE\PROJECT2\PROJECT2\DEBUG\VC141.PDB
F:\FANSHAWE\TERM 2\ARTIFICIAL INTELLIGENCE\PROJECT2\PROJECT2\DEBUG\VC141.IDB
F:\FANSHAWE\TERM 2\ARTIFICIAL INTELLIGENCE\PROJECT2\PROJECT2\DEBUG\GLAD.OBJ
